<?xml version="1.0" encoding="UTF-8"?>
<!DOCTYPE svg PUBLIC "-//W3C//DTD SVG 1.1//EN" "http://www.w3.org/Graphics/SVG/1.1/DTD/svg11.dtd">
<svg xmlns="http://www.w3.org/2000/svg" version="1.1" width="256px" height="256px" style="shape-rendering:geometricPrecision; text-rendering:geometricPrecision; image-rendering:optimizeQuality; fill-rule:evenodd; clip-rule:evenodd" xmlns:xlink="http://www.w3.org/1999/xlink">
<g><path style="opacity:0.886" fill="#000000" d="M 255.5,87.5 C 255.5,138.833 255.5,190.167 255.5,241.5C 253.968,243.521 251.968,245.021 249.5,246C 215.833,246.667 182.167,246.667 148.5,246C 141.278,243.723 134.278,240.89 127.5,237.5C 120.722,240.89 113.722,243.723 106.5,246C 72.8333,246.667 39.1667,246.667 5.5,246C 2.85408,245.196 0.854084,243.696 -0.5,241.5C -0.5,190.167 -0.5,138.833 -0.5,87.5C 0.646381,85.525 2.31305,84.025 4.5,83C 8.48617,82.5012 12.4862,82.3345 16.5,82.5C 16.3339,76.8236 16.5006,71.1569 17,65.5C 21.7107,63.0864 26.7107,61.4197 32,60.5C 32.3333,53.1667 32.6667,45.8333 33,38.5C 33.5,38 34,37.5 34.5,37C 61.3681,36.6227 85.7014,44.2894 107.5,60C 113.978,64.9775 120.312,70.1441 126.5,75.5C 138.751,56.0735 153.417,38.5735 170.5,23C 178.429,16.8683 187.095,12.035 196.5,8.5C 198.107,8.63696 199.441,9.30363 200.5,10.5C 201.472,19.4458 201.806,28.4458 201.5,37.5C 205.835,37.2619 210.169,36.9286 214.5,36.5C 217.58,36.3196 220.413,36.9862 223,38.5C 223.5,46.1594 223.666,53.8261 223.5,61.5C 228.762,61.5146 233.595,62.8479 238,65.5C 238.499,71.1569 238.666,76.8236 238.5,82.5C 242.514,82.3345 246.514,82.5012 250.5,83C 252.687,84.025 254.354,85.525 255.5,87.5 Z M 190.5,20.5 C 191.833,42.8234 192.5,65.49 192.5,88.5C 192.333,111.167 192.167,133.833 192,156.5C 167.125,170.041 147.458,189.041 133,213.5C 132.333,170.167 132.333,126.833 133,83.5C 144.531,63.2976 159.031,45.4643 176.5,30C 181.071,26.5791 185.737,23.4124 190.5,20.5 Z M 41.5,45.5 C 73.5142,49.0909 100.681,62.4242 123,85.5C 123.667,130.167 123.667,174.833 123,219.5C 99.8009,197.821 72.3009,185.821 40.5,183.5C 41.4406,137.69 41.774,91.6903 41.5,45.5 Z M 208.5,45.5 C 210.5,45.5 212.5,45.5 214.5,45.5C 214.5,91.5 214.5,137.5 214.5,183.5C 191.087,184.462 169.92,191.795 151,205.5C 159.646,191.85 170.812,180.35 184.5,171C 190.149,167.931 195.649,164.764 201,161.5C 201.5,123.168 201.667,84.8348 201.5,46.5C 204.059,46.8016 206.393,46.4682 208.5,45.5 Z M 93.5,209.5 C 71.3008,203.787 48.9674,203.12 26.5,207.5C 25.1667,162.167 25.1667,116.833 26.5,71.5C 28.4086,70.6518 30.4086,70.3184 32.5,70.5C 31.1812,110.34 31.1812,150.173 32.5,190C 32.9054,190.945 33.572,191.612 34.5,192C 56.0576,191.912 75.7243,197.746 93.5,209.5 Z M 223.5,70.5 C 225.262,70.3573 226.929,70.6906 228.5,71.5C 229.833,116.833 229.833,162.167 228.5,207.5C 214.98,204.723 201.313,203.89 187.5,205C 179.041,206.022 170.707,207.355 162.5,209C 181.235,197.78 201.402,191.613 223,190.5C 223.5,150.501 223.667,110.501 223.5,70.5 Z M 8.5,91.5 C 11.1667,91.5 13.8333,91.5 16.5,91.5C 16.3333,137.501 16.5,183.501 17,229.5C 17.5,230 18,230.5 18.5,231C 47.5,231.667 76.5,231.667 105.5,231C 107.94,229.697 110.44,228.53 113,227.5C 115.058,228.112 116.891,229.112 118.5,230.5C 114.214,233.476 109.547,235.643 104.5,237C 72.5017,237.5 40.5017,237.667 8.5,237.5C 8.5,188.833 8.5,140.167 8.5,91.5 Z M 238.5,91.5 C 241.167,91.5 243.833,91.5 246.5,91.5C 246.5,140.167 246.5,188.833 246.5,237.5C 214.498,237.667 182.498,237.5 150.5,237C 145.936,235.718 141.603,233.885 137.5,231.5C 136.167,230.833 136.167,230.167 137.5,229.5C 141.725,227.07 145.725,227.57 149.5,231C 179.165,231.5 208.831,231.667 238.5,231.5C 238.5,184.833 238.5,138.167 238.5,91.5 Z M 42.5,213.5 C 62.4417,212.289 81.7751,215.123 100.5,222C 75.5022,222.5 50.5022,222.667 25.5,222.5C 25.5,220.5 25.5,218.5 25.5,216.5C 31.3153,215.601 36.982,214.601 42.5,213.5 Z M 188.5,213.5 C 202.295,212.977 215.962,213.977 229.5,216.5C 229.5,218.5 229.5,220.5 229.5,222.5C 204.498,222.667 179.498,222.5 154.5,222C 165.665,217.94 176.998,215.107 188.5,213.5 Z"/></g>
<g><path style="opacity:0.854" fill="#000000" d="M 53.5,73.5 C 77.5796,77.4577 98.7462,87.4577 117,103.5C 117.645,107.85 115.812,110.017 111.5,110C 93.9686,96.2353 74.3019,86.7353 52.5,81.5C 51.102,78.5647 51.4353,75.8981 53.5,73.5 Z"/></g>
<g><path style="opacity:0.855" fill="#000000" d="M 52.5,107.5 C 76.2848,110.647 97.2848,119.981 115.5,135.5C 118.888,141.286 117.221,143.786 110.5,143C 93.7296,129.45 74.7296,120.45 53.5,116C 51.2645,113.415 50.9312,110.582 52.5,107.5 Z"/></g>
<g><path style="opacity:0.858" fill="#000000" d="M 54.5,144.5 C 77.1491,149.159 97.4824,158.659 115.5,173C 118.666,178.667 116.999,181.333 110.5,181C 93.5814,166.875 74.2481,157.542 52.5,153C 50.7763,149.464 51.443,146.631 54.5,144.5 Z"/></g>
</svg>
