<?xml version="1.0" encoding="UTF-8"?>
<!DOCTYPE svg PUBLIC "-//W3C//DTD SVG 1.1//EN" "http://www.w3.org/Graphics/SVG/1.1/DTD/svg11.dtd">
<svg xmlns="http://www.w3.org/2000/svg" version="1.1" width="256px" height="256px" style="shape-rendering:geometricPrecision; text-rendering:geometricPrecision; image-rendering:optimizeQuality; fill-rule:evenodd; clip-rule:evenodd" xmlns:xlink="http://www.w3.org/1999/xlink">
<g><path style="opacity:0.962" fill="#000000" d="M 53.5,23.5 C 58.1785,23.3342 62.8452,23.5008 67.5,24C 87.3822,34.1079 107.382,43.9412 127.5,53.5C 147.618,43.9412 167.618,34.1079 187.5,24C 200.363,21.1817 209.529,25.6817 215,37.5C 216.072,43.4547 216.572,49.4547 216.5,55.5C 231.367,53.0115 241.534,58.6782 247,72.5C 247.667,119.833 247.667,167.167 247,214.5C 244.167,222.667 238.667,228.167 230.5,231C 161.833,231.667 93.1667,231.667 24.5,231C 16.3333,228.167 10.8333,222.667 8,214.5C 7.33333,167.167 7.33333,119.833 8,72.5C 13.7476,58.3716 24.2476,52.705 39.5,55.5C 36.0915,41.0059 40.7582,30.3392 53.5,23.5 Z M 57.5,40.5 C 59.5273,40.3379 61.5273,40.5045 63.5,41C 81.8333,50.1667 100.167,59.3333 118.5,68.5C 119.833,115.5 119.833,162.5 118.5,209.5C 98.8333,199.667 79.1667,189.833 59.5,180C 57.9512,178.786 56.7845,177.286 56,175.5C 55.3333,131.833 55.3333,88.1667 56,44.5C 56.4101,43.0993 56.9101,41.766 57.5,40.5 Z M 191.5,40.5 C 193.527,40.3379 195.527,40.5045 197.5,41C 198.191,42.0674 198.691,43.2341 199,44.5C 199.667,88.1667 199.667,131.833 199,175.5C 198.215,177.286 197.049,178.786 195.5,180C 175.922,189.705 156.422,199.539 137,209.5C 136.333,162.5 136.333,115.5 137,68.5C 155.306,59.2646 173.473,49.9313 191.5,40.5 Z M 31.5,71.5 C 34.1667,71.5 36.8333,71.5 39.5,71.5C 39.3333,108.502 39.5,145.502 40,182.5C 41.3957,186.792 43.8957,190.292 47.5,193C 62.1667,200.333 76.8333,207.667 91.5,215C 71.5,215.667 51.5,215.667 31.5,215C 28.5056,214.594 26.339,213.094 25,210.5C 24.3333,165.833 24.3333,121.167 25,76.5C 26.5631,73.9771 28.7298,72.3104 31.5,71.5 Z M 216.5,71.5 C 220.747,71.1778 224.747,72.0111 228.5,74C 229.717,75.6477 230.55,77.481 231,79.5C 231.984,123.226 231.651,166.892 230,210.5C 228.661,213.094 226.494,214.594 223.5,215C 203.5,215.667 183.5,215.667 163.5,215C 178.167,207.667 192.833,200.333 207.5,193C 211.104,190.292 213.604,186.792 215,182.5C 216.455,145.531 216.955,108.531 216.5,71.5 Z"/></g>
</svg>
