<svg width="36" height="38" viewBox="0 0 36 38" fill="none" xmlns="http://www.w3.org/2000/svg">
<g filter="url(#filter0_b_751_895)">
<ellipse cx="18" cy="18.8482" rx="18" ry="18.8482" fill="white" fill-opacity="0.7"/>
</g>
<path d="M23.1689 17.1366C24.456 17.9147 24.456 19.7816 23.1689 20.5597L17.0347 24.2682C15.7018 25.074 14 24.1142 14 22.5566L14 15.1397C14 13.5821 15.7018 12.6223 17.0347 13.4281L23.1689 17.1366Z" fill="#0077C0"/>
<defs>
<filter id="filter0_b_751_895" x="-14" y="-14" width="64" height="65.6963" filterUnits="userSpaceOnUse" color-interpolation-filters="sRGB">
<feFlood flood-opacity="0" result="BackgroundImageFix"/>
<feGaussianBlur in="BackgroundImageFix" stdDeviation="7"/>
<feComposite in2="SourceAlpha" operator="in" result="effect1_backgroundBlur_751_895"/>
<feBlend mode="normal" in="SourceGraphic" in2="effect1_backgroundBlur_751_895" result="shape"/>
</filter>
</defs>
</svg>
