<?xml version="1.0" encoding="UTF-8" standalone="no"?>
<!DOCTYPE svg PUBLIC "-//W3C//DTD SVG 1.1//EN" "http://www.w3.org/Graphics/SVG/1.1/DTD/svg11.dtd">
<svg width="100%" height="100%" viewBox="0 0 16 24" version="1.1" xmlns="http://www.w3.org/2000/svg" xmlns:xlink="http://www.w3.org/1999/xlink" xml:space="preserve" xmlns:serif="http://www.serif.com/" style="fill-rule:evenodd;clip-rule:evenodd;stroke-linejoin:round;stroke-miterlimit:2;">
    <g transform="matrix(1,0,0,1,-4,0)">
        <path d="M5,7.602C5,4.085 8.271,1 12,1C15.729,1 19,4.085 19,7.602C19,11.057 16.437,15.145 12,22.129C7.511,15.056 5,11.057 5,7.602M12,-0C7.802,-0 4,3.403 4,7.602C4,11.8 7.469,16.812 12,24C16.531,16.812 20,11.8 20,7.602C20,3.403 16.199,0 12,0"/>
    </g>
</svg>
