<?xml version="1.0" encoding="UTF-8" standalone="no"?>
<!DOCTYPE svg PUBLIC "-//W3C//DTD SVG 1.1//EN" "http://www.w3.org/Graphics/SVG/1.1/DTD/svg11.dtd">
<svg width="100%" height="100%" viewBox="0 0 138 267" version="1.1" xmlns="http://www.w3.org/2000/svg" xmlns:xlink="http://www.w3.org/1999/xlink" xml:space="preserve" xmlns:serif="http://www.serif.com/" style="fill-rule:evenodd;clip-rule:evenodd;stroke-linejoin:round;stroke-miterlimit:2;">
    <g transform="matrix(4.16667,0,0,4.16667,0,0)">
        <g transform="matrix(0.0346744,0,0,0.0346271,-69.2362,-19.9451)">
            <path d="M2886.42,1358.46C2880.92,1406.1 2871.94,1453.48 2863.9,1499C2828.89,1697.3 2780.23,1893.88 2738.41,2090.19C2726.39,2146.58 2713.9,2203.62 2693.64,2257.36C2640.96,2397.08 2542.08,2450.48 2416.88,2412.25C2197.36,2345.21 2197.27,2115.3 2289.13,1939.46C2353.13,1816.96 2351.95,1693.65 2302.45,1570.15C2260.53,1465.56 2211.48,1363.73 2163.4,1261.72C2112.94,1154.67 2098.11,1010.05 2209.23,935.384C2310.39,867.424 2448.12,886.449 2558.98,915.86C2667.73,944.712 2789.7,988.468 2848.29,1092.06C2894.77,1174.24 2897.02,1266.83 2886.42,1358.46Z" style="fill:rgb(35,31,32);fill-rule:nonzero;"/>
        </g>
        <g transform="matrix(0.0346744,0,0,0.0346271,-69.2362,-19.9451)">
            <path d="M2243.62,695.313C2270.93,779.739 2240.02,865.336 2174.6,886.499C2109.17,907.661 2033.99,856.375 2006.69,771.949C1979.38,687.523 2010.28,601.926 2075.71,580.764C2141.13,559.602 2216.31,610.887 2243.62,695.313Z" style="fill:rgb(35,31,32);fill-rule:nonzero;"/>
        </g>
        <g transform="matrix(0.0346744,0,0,0.0346271,-69.2362,-19.9451)">
            <path d="M2946.4,969.639C2937.88,1010.29 2905.44,1037.89 2873.94,1031.29C2842.44,1024.69 2823.8,986.392 2832.32,945.743C2840.83,905.093 2873.27,877.49 2904.78,884.088C2936.28,890.687 2954.91,928.989 2946.4,969.639Z" style="fill:rgb(35,31,32);fill-rule:nonzero;"/>
        </g>
        <g transform="matrix(0.0346744,0,0,0.0346271,-69.2362,-19.9451)">
            <path d="M2830.61,854.523C2819.81,906.054 2778.69,941.047 2738.75,932.682C2698.82,924.317 2675.2,875.761 2685.99,824.23C2696.79,772.699 2737.91,737.706 2777.84,746.071C2817.78,754.436 2841.4,802.992 2830.61,854.523Z" style="fill:rgb(35,31,32);fill-rule:nonzero;"/>
        </g>
        <g transform="matrix(0.0346744,0,0,0.0346271,-69.2362,-19.9451)">
            <path d="M2663.58,762.77C2657.2,820.216 2615.94,862.78 2571.42,857.839C2526.91,852.898 2495.98,802.324 2502.36,744.878C2508.74,687.433 2549.99,644.869 2594.51,649.81C2639.03,654.75 2669.95,705.324 2663.58,762.77Z" style="fill:rgb(35,31,32);fill-rule:nonzero;"/>
        </g>
        <g transform="matrix(0.0346744,0,0,0.0346271,-69.2362,-19.9451)">
            <path d="M2469.85,719.256C2469.85,785.042 2428.52,838.373 2377.54,838.373C2326.56,838.373 2285.23,785.042 2285.23,719.256C2285.23,653.47 2326.56,600.14 2377.54,600.14C2428.52,600.14 2469.85,653.47 2469.85,719.256Z" style="fill:rgb(35,31,32);fill-rule:nonzero;"/>
        </g>
    </g>
</svg>
